 作者  friday3188 (green)                                     看板  Gossiping 
 標題  [新聞] 大陸富豪揪團來台豪賭　爆乳辣妹作陪爽                            
 時間  Wed Nov 27 16:03:30 2013                                               
───────────────────────────────────────

1.媒體來源:
ettoday

2.完整新聞標題/內文:

大陸富豪揪團來台豪賭　爆乳辣妹作陪爽領上萬小費

生活中心／綜合報導


有錢人果然不一樣！掌握10兆資產的大陸富豪俱樂部「泰山會」，日前16名成員來台觀光

，包含曾與影后章子怡傳緋聞的巨人集團創辦人史玉柱、最年輕英俊的鼎天資產總裁王兵

等人，摟著爆乳妹走進晶華酒店豪賭，甚至還有人一晚輸了150萬。


《壹週刊》報導，「泰山會」的16名富豪16日晚間分乘4車抵達台北市晶華酒店，下車時王
  
兵還貼心地等候辣妹跟上後才快步走進飯店；這8名台灣辣妹各個穿短裙，露出修長美腿，

其中一名「爆乳妹」下車時一個踉蹌，豐滿的左胸簡直快掉出來，連大衣都差點hold不住

。

▼台灣爆乳妹嬌嗔一句「你好年輕」，陸富豪闊手賞1萬小費。(圖／翻拍自《壹週刊》)
http://static.ettoday.net/images/458/d458555.jpg


16名富豪下車後直奔飯店，其中7人賭性大發，在辣妹的陪同下到18樓套房玩德州撲克，賭

金人民幣1萬元起跳，一晚下來有人就輸了150萬台幣；儘管輸錢，但富豪們給小費還是很

大方，知情人士透露，有辣妹嘴甜稱讚某富豪看起來很年輕，就獲得1萬塊的打賞，讓她們

卯起來服務，一個晚上光小費就有10幾萬；但有的辣妹太盡興喝掛了，直接躺在床上休息

，因此少賺好幾萬。


  
結束了精彩夜生活後，富豪們隔天還參觀藝文展覽，但模樣看起來興致缺缺，只是走馬看

花，還有人乾脆躲在角落抽菸等同伴，接著品嘗完台灣美食、到礁溪泡湯後就結束6天的遊

台行程。


據《東森新聞》報導，富豪俱樂部泰山會相當神秘，成員只有16人，1993年在山東成立，

宗旨是討論大陸經濟和政治走向，但不參與政治，而且每次聚會採取不錄音、不紀錄，好

暢所欲言；今年成立20周年，選擇來台秘密聚會，原本還打算邀請鴻海總裁郭台銘，以及

立法院長王金平，但怕行程曝光成了媒體焦點，只好做罷。


報導指出，泰山會的會長是聯想集團創辦人柳傳志，資產有5308億；泰山會成員則有大陸

娛樂集團華誼兄弟總裁王中軍，以及巨人集團創辦人史玉柱、泛海集團總裁盧志強等人，

隨便一個人的事業資產，都比台灣中央總預算多出好幾倍，16人所掌握的財富超過台幣10

  
兆元。


3.新聞連結:
http://www.ettoday.net/news/20131127/301168.htm

--
※ 發信站: 批踢踢實業坊(ptt.cc) 
◆ From: 114.33.158.137
→ Taiwanotoko:有錢真好                                            11/27 16:05
→ kangta0819:會不會以後換大陸人來臺灣找小姐?                      11/27 16:05
推 Workforme:這種聚賭都不會抓的 反觀你家打麻將鴿子馬上就來找碴     11/27 16:05
→ ceca:他們還找小姐??...走到哪小姐都馬跟到哪.                     11/27 16:06
→ osuki:錢多的人會怕你罰嗎                                        11/27 16:06
→ eddie1212:圖片 那個奶整個都倒出來了阿..                         11/27 16:08
推 anachronism:台灣已成後花園                                      11/27 16:09
→ eddieyu:卯起來服務...XD                                         11/27 16:09
推 LNGOGO:年輕人看到沒 你卑躬屈膝的供奉公主 公主搶著要含有錢人     11/27 16:10
→ forever23:$$$$$$$$$$$$$$$$$$$$$$$$$$$$$                         11/27 16:10
噓 season002:才輸150萬                                             11/27 16:11
→ LNGOGO:有那個時間在那邊她愛我 她不愛我 不如好好賺錢以後玩不完   11/27 16:12
噓 TaylorMade:台灣女生成為 大陸豪豬肉便器                          11/27 16:15
  
→ KrisNYC:早十年身家少兩個0 竹科新貴上台北抱大奶妹豪賭也天天發生  11/27 16:21
噓 keepwild:呆丸真的快變成26的屬地了 另推TaylorMade 說得好         11/27 16:34
推 nixon:讚, 多輸一點                                              11/27 16:39
推 ClubT:台灣有合法賭場?                                           11/27 16:39
噓 htaedamay:警察不抓嗎                                            11/27 16:45
推 id:有錢人+私人場所你怎麼抓                                      11/27 16:47
推 zxcxxx:微罪不舉  謝謝指教                                       11/27 17:08
→ c8c812345678:這種不去搶她 真的是天荒地老爐三小                  11/27 19:21
