 作者  em4 (通通去吃寶路啦><)                                 看板  Gossiping 
 標題  [問卦] 有沒有低醣飲食是最健康的卦?                                     
 時間  Wed Nov 27 15:40:50 2013                                               
───────────────────────────────────────洨妹最近看到一堆健康的書 或者是運動的書。大多都推廣低醣飲食才是讓身體健康的飲食模式低醣飲食並不是所謂的阿金減肥法。是攝取適量、好的醣類(非精緻醣) 避免血糖突升而不是完全不攝取碳水化合物 導致身體酮中毒。對減脂或是健康都很有效果~科科 有沒有這方面的卦

--
※ 發信站: 批踢踢實業坊(ptt.cc)
◆ From: 111.255.85.67
→ kkessherry:(嚼粉圓)                                             11/27 15:41
  推 KawasumiMai:(嚼小焰)                                            11/27 15:42
→ cpz:       (嚼小圓)                                             11/27 15:42
推 christopherl:少吃單醣，改吃多醣就好啦。單醣沒有飽足感易餓。     11/27 15:43
→ tsunamimk2:嚴格說來不是低醣 是低GI....                          11/27 15:43
→ tsunamimk2:因為低GI飲食不會因為血糖的快速變化而造成大吃大喝     11/27 15:44即使是低GI醣類 攝取量也是被嚴格控制的 幾乎都轉成蔬菜豆類
※ 編輯: em4             來自: 111.255.85.67        (11/27 15:45)
推 tsunamimk2:GI的意思是"讓血糖上升"                               11/27 15:46
→ tsunamimk2:不是某種醣叫做GI....                                 11/27 15:47
推 erosyang:我說實話 我力行低GI 飲食 體重一個月掉了8kg             11/27 15:48
→ tsunamimk2:然後請攝取低脂肪的白肉 雞和魚最好 不飽和脂肪酸       11/27 15:48
→ erosyang:壞膽固醇197變成135                                     11/27 15:48
→ tsunamimk2:一開始都很快啊 我第一個月少了10kg, 但是很快就會撞牆  11/27 15:48
→ erosyang:三酸甘油脂66變成45                                     11/27 15:48
→ tsunamimk2:這時候就只有有氧運動和重訓和飲食不停的控制下去了     11/27 15:48
→ tsunamimk2:只能說體重控制是一輩子的事業                         11/27 15:49
推 ndr:連糖尿病患者也還要攝取醣類了                                11/27 15:49
推 erosyang:醣類只吃燕麥 muesli 雜糧 11穀 地瓜 南瓜                11/27 15:50
→ ndr:應該說是健康管理是一輩子的事....                            11/27 15:50
→ tsunamimk2:是啊 其實應該說是健康管理 體重只是一環...            11/27 15:51
→ erosyang:糖化血色素6變成5.3                                     11/27 15:51
→ tsunamimk2:還有馬鈴薯                                           11/27 15:51
  
→ tsunamimk2:一顆馬鈴薯用水煮當澱粉來源十分好                     11/27 15:51
→ tsunamimk2:但請別加上一塊奶油 那就毀了                          11/27 15:52
→ a8330028:現在是流行生酮飲食                                     11/27 16:02
