 作者  gnest (海邊漂來的鳥巢)                                 看板  Gossiping 
 標題  [新聞] 台灣缺競爭力 8年後「人才斷崖」？                                
 時間  Wed Nov 27 16:47:07 2013                                               
───────────────────────────────────────

台灣缺競爭力 8年後「人才斷崖」？

近期產業界接班話題正夯，但台灣高階人才斷層卻成了最大隱憂。根據國外最新公布的調
查顯示，2021年台灣將出現全球最嚴重的人才短缺危機。另外一份報告也警告，台灣人才
指標恐怕在2015年，遠遠落後新加坡和台灣。專家大聲疾呼，高階人才短缺和政府政策、
企業心態和教育走向緊緊相連，台灣必須正視人才危機，不然會賠掉未來的競爭力。

宏碁創辦人施振榮，以將近70歲高齡重掌軍旗，讓產業界接班危機，再度浮出檯面，同時
根據牛津經濟研究院，最新評估，台灣恐怕將在2021年，也就是8年後，面臨全球最嚴重
的人才短缺。

全球化教育推廣協會理事長陳超明：「事實上，我們缺乏國際觀，跟國際溝通能力、跟國
際移動力的概念，像韓國在過去10年來，或者亞洲其他國家，過去10年來，或是香港、新
加坡，它們很重要的是，這個國際移動力。」

根據調查，直到2021年，全球46國中，印度、印尼、哥倫比亞等國家，將出現人才過剩，
中國大陸供需平衡，但最缺乏高階人才的國家，包括日本、波蘭，而台灣竟在全球吊車尾
，另外全球著名人力資源公司，提出一份2015年展望報告，預測台灣人才指標，將遠遠落
  後新加坡以及香港，讓專家憂心忡忡。

全球化教育推廣協會理事長陳超明：「我們應該預估一下10年之後，我們到底缺什麼人才
？那依照10年的人才往前推，我們現在要什麼科系，該強化的、該簡化的，應該就開始做
起。」

專家分析，台灣人才之所以短缺，主因在於生育率低、人口老化，政府與企業人才培育，
和職場出現落差，台灣人不肯走出去，企業又抱著撿現成心態，不肯砸錢投資，難怪台灣
高階人才，拉起警報。台北教育大學教授莊淇銘：「台灣的政府非常的保守，我們應該敞
開胸襟，讓優秀人才進來，帶來群聚效應，讓台灣的競爭力起來，人才不進來，競爭力不
會起來，競爭力不會起來，台灣的國民所得，就一再一再退到10幾年前。」

學界、業界看到嚴重性，疾呼台灣應盡快敞開大門，吸引全球人才，就怕喪失國際化能力
，競爭力也會跟著陪葬。

http://news.msn.com.tw/news3448286.aspx
----
那些老屁股不是都覺得自己是最強的一代

已經都給他們玩了怎麼又說玩不起？

--
  
※ 發信站: 批踢踢實業坊(ptt.cc)
◆ From: 114.45.175.45
推 mzwj:我啊                                                       11/27 16:47
→ peter308:年輕一代的素質真的只能搖頭                             11/27 16:47
→ syura945:這已經講好幾年了                                       11/27 16:48
推 MacOSX10:看來只好引進大陸人才了看來只好引進大陸人才了看來只好   11/27 16:48
推 L0v35:幹你娘 林霸工作一輩子買不起一間廁所 是誰害的 幹           11/27 16:48
噓 magi3Q:台灣人才指標恐怕在2015年，遠遠落後新加坡和台灣。 殺小    11/27 16:48
→ eddieyu:年老一代的嘴泡功力也只能搖頭                            11/27 16:48
推 taco13:教育政策被這些專家學者搞爛了 老師不敢嚴管 學生不受教     11/27 16:48
推 lalamio:之前有個po文說 你就值這個價 不知道囂張甚麼 那他值哪個   11/27 16:48
→ rongbin07:莊?那個很愛上電視的政論名嘴?男版周x蔻?                11/27 16:48
→ rongbin07:十多年前....平面電子霉體發了瘋 全面追殺剛畢業6.7年級  11/27 16:50
→ rongbin07:但是很奇怪的事發生了 八年級竟然完全沒有被攻擊 科科    11/27 16:50
噓 manlike:台灣上一代缺乏競爭力啊~~~ 太廢了 一堆老不死~~           11/27 16:50
推 RIFF:1.優秀人才都先逃了                                         11/27 16:51
→ RIFF:2.國際觀 : 我們都鎖在中國                                  11/27 16:51
推 tomet:所 謂子不教父之過 這代的問題，真的是這代的問題麻?         11/27 16:51
→ rongbin07:因為愛放話的編輯.社長.寫手.專家.教授的子女 正要就業   11/27 16:51
噓 James781004:老人可不可以閉嘴啊                                  11/27 16:51
→ RIFF:3.solution:中學英數理課全英文授課                          11/27 16:53
→ psplay:就幹你娘阿 操 把產業搞爛只會costdown還來怪年輕人?        11/27 16:53
  
→ RIFF:  大學想畢業 要求要 第二外語初級證照才能畢業               11/27 16:53
→ psplay:你媽的才剛工作5~6年是有幾個人有能力影響產業?             11/27 16:54
噓 djyunjie:都是年輕人太費                                         11/27 16:54
推 h062471033:慣老闆: cost down                                    11/27 16:54
推 hateOnas:內文請補標題                                           11/27 16:54
噓 sour5566:假議題，老屁股們別舉債別污染，給我們一個無負擔乾淨的   11/27 16:54
推 aresa:自己搞爛攤子開始要丟給7年級了                             11/27 16:54
→ sour5566:未來，等你們這群專吃同胞的吸血鬼掛完了我們就能能大步   11/27 16:54
推 howard1110:從根爛起∼鬼島破滅之期不遠矣~                        11/27 16:54
→ psplay:你他媽112 113 114出來不是去外商就是大公司 還愛喊咧       11/27 16:54
→ sour5566:向前了！                                               11/27 16:54
→ PasserDin:感謝英九德政                                          11/27 16:54
推 rabbit190:對鬼島老闆來說缺奴才                                  11/27 16:55
→ revorea:八年遺毒                                                11/27 16:55
噓 pomelo524:台灣一堆中小企業慣老闆~都想撿現成 但又出不起錢~       11/27 16:56
推 dtdon1699:哈佛畢業的水母不也是個人才                            11/27 16:56
→ clhfly:實話 大學教授都說素質越來差                              11/27 16:57
噓 okdhhurfy97:讓優秀人才進來？ 然後自己人只值22k？ bj4            11/27 16:57
噓 summer3178:把大環境搞成這樣，再來一付嘴炮說年輕人沒有競爭力     11/27 16:57
※ 編輯: gnest           來自: 114.45.175.45        (11/27 16:58)
→ unitraveller:cost down的確害了台灣                              11/27 16:59
噓 psplay:還是要說幹你娘 碼的年輕人是工作多久了啊? 操他媽的產業    11/27 17:00
  
噓 deepdish:幫翻譯：台灣經濟不好都是因為年輕人不滾出台灣           11/27 17:00
→ psplay:被你們他嗎不研發不進步只會costdown的決策者搞爛           11/27 17:00
→ psplay:現在反而來檢討年輕人沒競爭力 幹你媽的                    11/27 17:00
噓 vvus:千錯萬錯又是年輕人的錯了                                   11/27 17:01
→ psplay:你他媽工作幾年了? 年輕人工作多久? 他媽沒經驗你不教       11/27 17:01
→ psplay:是要年輕人幹你媽的天生神力 無師自通喔                    11/27 17:02
噓 beartsubaki:                                                    11/27 17:03
噓 nilson:真正人才其他國家高薪聘請不賣肝，誰還留在這邊給你賣命     11/27 17:04
→ unitraveller:連吃的都在cost down                                11/27 17:05
噓 Ghamu:沒有夢又沒有錢 培養出來的人才也是去國外發展               11/27 17:06
→ unitraveller:台灣的問題在於讓階級停止流動而沒法永續經營         11/27 17:07
噓 Sayd20:快出走吧 只會瞧不起年輕人cost down的社會有何理由不出走   11/27 17:08
→ NowQmmmmmmmm:都去國外了怪誰?再壓薪水八                          11/27 17:10
噓 wht810090:統統賴給年輕人就對了 老屁股們自己都不用檢討           11/27 17:15
噓 MermaidFA:台灣人才已經外流至少一半了                            11/27 17:23
→ ddss:怕什麼，有12年國教，怎麼會斷層                             11/27 17:38
噓 CP543:欸欸 怎麼不怪阿扁了？                                     11/27 17:38
→ iamznon:某樓我可不相信年輕人輸老的..你以前一千名內2O年前與現在  11/27 17:39
→ iamznon:人家一大堆外語檢定及程式.你去問20年前他們會不會         11/27 17:40
→ iamznon:最慘是出來22K~30K..                                     11/27 17:41
→ ddss:台面上是老將回鍋穩軍心，成敗論英雄，台積電是最好的例子     11/27 17:41
→ iamznon:老實說我都有點不相信MA總統大學畢會那麼多..不過他有一句  11/27 17:41
  
→ iamznon:古月大哥你好..我爸是......就贏9成9的人了..              11/27 17:43
推 icome:奴隸很多啊 不用怕                                         11/27 17:48
噓 silentence:能不眠不休 不領薪水的人才的確很缺啊                  11/27 17:49
推 mko00kimo:他到底是要國內人才還是國外人才阿?? 說台灣人不出走     11/27 17:58
→ mko00kimo:那不就人才都沒出去阿~有人可用阿~還要對國外開放人進來  11/27 17:59
噓 soulbug:給超低薪水又要即戰力人才不培養 然後哭哭沒人才           11/27 18:00
→ soulbug:職場文化又以年資來看 老的說啥都對 菜的說啥都錯          11/27 18:03
→ soulbug:真正有想法的人才華直接埋沒 然後又哭沒人才               11/27 18:04
→ soulbug:千里馬常有 伯樂難尋 展露才華的千里馬值千金付不起        11/27 18:07
→ valenci:沒有不夠的人才，只有出不起的錢                          11/27 18:07
→ soulbug:又沒眼光自己去尋千里馬 怪誰?                            11/27 18:08
噓 pradaad:老屁股該滾快滾，給年輕人來掌舵                          11/27 18:39
推 iamznon:查了伯樂故事..看到一個人..九方皋..比伯樂強              11/27 18:45
→ iamznon:搞不好8卦鄉民22K的人就是9方皋咩..比伯樂更強相馬??       11/27 18:46
推 rainbow321:工作一輩子也買不起房子                               11/27 19:11
→ rainbow321:那幹嘛那麼辛苦？                                     11/27 19:11
→ eterbless:強的都逃離鬼島了                                      11/27 19:44
推 author:拚公職吧 拚上後這些都沒什麼差                            11/28 22:33
