 作者  shpongle (LIONS 113)                                   看板  Gossiping 
 標題  Re: [問卦] 請問一下喬丹第1次3連霸和第2次3連霸                          
 時間  Wed Nov 27 17:22:05 2013                                               
───────────────────────────────────────


第一次是 衝勁

第二次是 無畏

喬丹的父親在 第一次三連霸的時候  被人幹掉

這件事給喬丹很大的衝擊

所以喬丹退休又回到球場  打法變的很可怕  幾乎是已經變成完全體

能切能後仰跳投  技術全面到幾乎沒人真正守的住他

所以能夠創造 單季 ７２勝１０負的  NBA的最高紀錄

尤其是當他輕輕的推到羅素  來個急停收球的回馬槍跳投  讓整個鹽湖城的球迷都心碎了

https://www.youtube.com/watch?v=vdPQ3QxDZ1s   1998: Jordan's Last Shot
  
--
※ 發信站: 批踢踢實業坊(ptt.cc) 
噓 bandongo:推一下不行逆                                           11/27 17:22
→ thirteenflor:真的猛 某場烙賽臉都白了還可以贏                    11/27 17:23
推 thanxU9527:民國86年是嗎？那年的六月宿舍發出各種狂吼，教室都聽   11/27 17:26
→ thanxU9527:到了…                                               11/27 17:26
→ shadowmelo:可以幫我轉NBA版嗎                                    11/27 17:26
→ leonh0627:                  原PO有同意轉嗎                      11/27 17:30
推 wrqet:就像克林死了悟空會變超賽的道理一樣                        11/27 17:30
→ karpa:復出後體能有下滑,看youtube上90、91公牛對活塞的影片就知    11/27 20:08
→ eemail:他走步裁判不吹也讓鹽湖城心碎呀                           11/27 23:25
