 作者  assassinzero (刺客教條 我的最愛)                       看板  Gossiping 
 標題  Re: [問卦] 有沒有學店的八卦                                            
 時間  Wed Nov 27 17:26:18 2013                                               
───────────────────────────────────────


其實念學店也不用太丟臉拉

畢竟學店中還是會有幾個比較清流的學生

不然這些學店早就倒光光了...

--
 作者  gargamel (賈不妙)                                      看板  Gossiping 
我覺得在網路上自稱帥哥的 都應該要抓去驗智商
尤其是那些各地金城武 郭富城...都要!#1IYop99o
--------------------------------------------------------------------------
http://www.8z1.net/as1332711969.html
推 gargamel:hi我是金城武 03/25 23:12

--
※ 發信站: 批踢踢實業坊(ptt.cc) 
◆ From: 140.123.16.60
  噓 r30385:   123                                                   11/27 17:26
噓 ortuortu: 123                                                   11/27 17:27
→ theeht:你們3個室友喔                                            11/27 17:28
噓 takeshii:拍拍                                                   11/27 17:34
噓 mythman3200:123都在潛水??                                       11/27 17:52
→ thm369541:ㄇㄉ123學店就不要出來丟人現眼,妳們已經被中華幹掉ㄌ    11/27 19:18
